
===================
Cinnamon 3.6.7 docs
===================

- `Cinnamon Reference Manual <../../_static/cinnamon-doc/3.6.7/cinnamon/index.html>`__
- `Cinnamon Javascript Reference Manual <../../_static/cinnamon-doc/3.6.7/cinnamon-js/index.html>`__
- `Cinnamon St Reference Manual <../../_static/cinnamon-doc/3.6.7/cinnamon-st/index.html>`__
- `Cinnamon Tutorials <../../_static/cinnamon-doc/3.6.7/cinnamon-tutorials/index.html>`__
